<?xml version="1.0" encoding="UTF-8" standalone="no"?>
<svg
   xmlns:dc="http://purl.org/dc/elements/1.1/"
   xmlns:cc="http://creativecommons.org/ns#"
   xmlns:rdf="http://www.w3.org/1999/02/22-rdf-syntax-ns#"
   xmlns:svg="http://www.w3.org/2000/svg"
   xmlns="http://www.w3.org/2000/svg"
   xmlns:sodipodi="http://sodipodi.sourceforge.net/DTD/sodipodi-0.dtd"
   xmlns:inkscape="http://www.inkscape.org/namespaces/inkscape"
   inkscape:export-ydpi="130.048"
   inkscape:export-xdpi="130.048"
   inkscape:export-filename="../thelema-logo-512.png"
   sodipodi:docname="thelema-logo.svg"
   inkscape:version="0.92.5 (2060ec1f9f, 2020-04-08)"
   id="svg8"
   version="1.1"
   viewBox="0 0 100 100"
   height="100mm"
   width="100mm">
  <defs
     id="defs2">
    <filter
       style="color-interpolation-filters:sRGB;"
       inkscape:label="Drop Shadow"
       id="filter3644">
      <feFlood
         flood-opacity="1"
         flood-color="rgb(255,255,255)"
         result="flood"
         id="feFlood3634" />
      <feComposite
         in="flood"
         in2="SourceGraphic"
         operator="in"
         result="composite1"
         id="feComposite3636" />
      <feGaussianBlur
         in="composite1"
         stdDeviation="0"
         result="blur"
         id="feGaussianBlur3638" />
      <feOffset
         dx="0.0048579"
         dy="-0.75853430706521863"
         result="offset"
         id="feOffset3640" />
      <feComposite
         in="offset"
         in2="SourceGraphic"
         operator="out"
         result="composite2"
         id="feComposite3642" />
    </filter>
    <filter
       style="color-interpolation-filters:sRGB"
       inkscape:label="Drop Shadow"
       id="filter3644-6"
       x="-0.047643081"
       width="1.0952862"
       y="-0.047643081"
       height="1.0952862">
      <feFlood
         flood-opacity="1"
         flood-color="rgb(26,95,180)"
         result="flood"
         id="feFlood3634-0" />
      <feComposite
         in="flood"
         in2="SourceGraphic"
         operator="in"
         result="composite1"
         id="feComposite3636-6" />
      <feGaussianBlur
         in="composite1"
         stdDeviation="1.8015929"
         result="blur"
         id="feGaussianBlur3638-2" />
      <feOffset
         dx="0.0048579"
         dy="-0.75853430706521863"
         result="offset"
         id="feOffset3640-6" />
      <feComposite
         in="offset"
         in2="SourceGraphic"
         operator="out"
         result="composite2"
         id="feComposite3642-1" />
    </filter>
  </defs>
  <sodipodi:namedview
     inkscape:document-rotation="0"
     inkscape:window-maximized="1"
     inkscape:window-y="0"
     inkscape:window-x="0"
     inkscape:window-height="1012"
     inkscape:window-width="1920"
     showgrid="false"
     inkscape:current-layer="layer1"
     inkscape:document-units="mm"
     inkscape:cy="230.5811"
     inkscape:cx="23.405512"
     inkscape:zoom="1.4"
     inkscape:pageshadow="2"
     inkscape:pageopacity="0"
     borderopacity="1.0"
     bordercolor="#666666"
     pagecolor="#000000"
     id="base" />
  <metadata
     id="metadata5">
    <rdf:RDF>
      <cc:Work
         rdf:about="">
        <dc:format>image/svg+xml</dc:format>
        <dc:type
           rdf:resource="http://purl.org/dc/dcmitype/StillImage" />
        <dc:title />
      </cc:Work>
    </rdf:RDF>
  </metadata>
  <g
     transform="translate(0,-197)"
     id="layer1"
     inkscape:groupmode="layer"
     inkscape:label="Layer 1">
    <circle
       style="fill:#000000;fill-opacity:1;stroke:#ffffff;stroke-width:2.55988;stroke-miterlimit:68;stroke-dasharray:none"
       id="path877"
       cx="50"
       cy="247"
       r="38.720058" />
    <path
       sodipodi:nodetypes="ccccccc"
       id="path831"
       d="m 20.410901,230.26763 29.865239,8.53293 29.865239,-8.53293 -21.332314,21.33231 -8.532925,29.86525 -8.532926,-29.86525 z"
       style="vector-effect:none;fill:none;fill-opacity:1;stroke:#ffffff;stroke-width:2.55988;stroke-linecap:butt;stroke-linejoin:bevel;stroke-miterlimit:68;stroke-dasharray:none;stroke-dashoffset:0;stroke-opacity:1" />
    <path
       sodipodi:nodetypes="ccccccc"
       id="path831-7"
       d="m 80.141375,263.26275 -29.865239,-8.53292 -29.865239,8.53292 21.332314,-21.33231 8.532925,-29.86524 8.532925,29.86524 z"
       style="vector-effect:none;fill:none;fill-opacity:1;fill-rule:nonzero;stroke:#ffffff;stroke-width:2.55988;stroke-linecap:butt;stroke-linejoin:bevel;stroke-miterlimit:68;stroke-dasharray:none;stroke-dashoffset:0;stroke-opacity:1" />
  </g>
</svg>
